{
	"common_dir" : "/media/mario/Dati/Desk/Mario/Studio+/Magis/Sistemi Digitali Programmabili - De Leonardis/Quartus Workspace/Half_adder/",
	"acds_version" : "Version 15.0.0 Patches 0.01we",
	"platform" : "linux",
	"os" : "Linux Mint",
	"qpf" : "Half_adder.qpf"
}